[
    {
        "id": 1,
        "level": 1,
        "name": "包身工",
        "final_exp": 100,
        "master_score": 0,
        "tool": "null"
    },
    {
        "id": 2,
        "level": 2,
        "name": "短工",
        "final_exp": 300,
        "master_score": 0,
        "tool": "null"
    },
    {
        "id": 3,
        "level": 3,
        "name": "长工",
        "final_exp": 600,
        "master_score": 0,
        "tool": "null"
    },
    {
        "id": 4,
        "level": 4,
        "name": "佃户",
        "final_exp": 1000,
        "master_score": 0,
        "tool": "null"
    },
    {
        "id": 5,
        "level": 5,
        "name": "贫农",
        "final_exp": 1500,
        "master_score": 0,
        "tool": "null"
    },
    {
        "id": 6,
        "level": 6,
        "name": "中农",
        "final_exp": 2500,
        "master_score": 0,
        "tool": "null"
    },
    {
        "id": 7,
        "level": 7,
        "name": "富农",
        "final_exp": 5000,
        "master_score": 0,
        "tool": "null"
    },
    {
        "id": 8,
        "level": 8,
        "name": "掌柜",
        "final_exp": 10000,
        "master_score": 0,
        "tool": "null"
    },
    {
        "id": 9,
        "level": 9,
        "name": "商人",
        "final_exp": 15500,
        "master_score": 0,
        "tool": "null"
    },
    {
        "id": 10,
        "level": 10,
        "name": "大财主",
        "final_exp": 20000,
        "master_score": 0,
        "tool": "null"
    },
    {
        "id": 11,
        "level": 11,
        "name": "一星地主",
        "final_exp": 26000,
        "master_score": 0,
        "tool": "null"
    },
    {
        "id": 12,
        "level": 12,
        "name": "二星地主",
        "final_exp": 34000,
        "master_score": 0,
        "tool": "null"
    },
    {
        "id": 13,
        "level": 13,
        "name": "三星地主",
        "final_exp": 44000,
        "master_score": 0,
        "tool": "null"
    },
    {
        "id": 14,
        "level": 14,
        "name": "四星地主",
        "final_exp": 57500,
        "master_score": 0,
        "tool": "null"
    },
    {
        "id": 15,
        "level": 15,
        "name": "五星地主",
        "final_exp": 74500,
        "master_score": 0,
        "tool": "null"
    },
    {
        "id": 16,
        "level": 16,
        "name": "一星知县",
        "final_exp": 97000,
        "master_score": 50,
        "tool": "null"
    },
    {
        "id": 17,
        "level": 17,
        "name": "二星知县",
        "final_exp": 126000,
        "master_score": 100,
        "tool": "null"
    },
    {
        "id": 18,
        "level": 18,
        "name": "三星知县",
        "final_exp": 164000,
        "master_score": 150,
        "tool": "null"
    },
    {
        "id": 19,
        "level": 19,
        "name": "四星知县",
        "final_exp": 213000,
        "master_score": 200,
        "tool": "null"
    },
    {
        "id": 20,
        "level": 20,
        "name": "五星知县",
        "final_exp": 256000,
        "master_score": 250,
        "tool": "null"
    },
    {
        "id": 21,
        "level": 21,
        "name": "一星通判",
        "final_exp": 307000,
        "master_score": 500,
        "tool": "null"
    },
    {
        "id": 22,
        "level": 22,
        "name": "二星通判",
        "final_exp": 368500,
        "master_score": 750,
        "tool": "null"
    },
    {
        "id": 23,
        "level": 23,
        "name": "三星通判",
        "final_exp": 442000,
        "master_score": 1000,
        "tool": "null"
    },
    {
        "id": 24,
        "level": 24,
        "name": "四星通判",
        "final_exp": 530500,
        "master_score": 1250,
        "tool": "null"
    },
    {
        "id": 25,
        "level": 25,
        "name": "五星通判",
        "final_exp": 636500,
        "master_score": 1500,
        "tool": "null"
    },
    {
        "id": 26,
        "level": 26,
        "name": "一星知府",
        "final_exp": 764500,
        "master_score": 2000,
        "tool": "null"
    },
    {
        "id": 27,
        "level": 27,
        "name": "二星知府",
        "final_exp": 917000,
        "master_score": 2500,
        "tool": "null"
    },
    {
        "id": 28,
        "level": 28,
        "name": "三星知府",
        "final_exp": 1100500,
        "master_score": 3000,
        "tool": "null"
    },
    {
        "id": 29,
        "level": 29,
        "name": "四星知府",
        "final_exp": 1584500,
        "master_score": 3500,
        "tool": "null"
    },
    {
        "id": 30,
        "level": 30,
        "name": "五星知府",
        "final_exp": 1901500,
        "master_score": 4000,
        "tool": "null"
    },
    {
        "id": 31,
        "level": 31,
        "name": "七品总督",
        "final_exp": 2281500,
        "master_score": 5000,
        "tool": "null"
    },
    {
        "id": 32,
        "level": 32,
        "name": "六品总督",
        "final_exp": 2738000,
        "master_score": 6000,
        "tool": "null"
    },
    {
        "id": 33,
        "level": 33,
        "name": "五品总督",
        "final_exp": 3285500,
        "master_score": 7000,
        "tool": "null"
    },
    {
        "id": 34,
        "level": 34,
        "name": "三品总督",
        "final_exp": 4731500,
        "master_score": 8000,
        "tool": "null"
    },
    {
        "id": 35,
        "level": 35,
        "name": "二品总督",
        "final_exp": 5677500,
        "master_score": 9000,
        "tool": "null"
    },
    {
        "id": 36,
        "level": 36,
        "name": "五品巡抚",
        "final_exp": 6813500,
        "master_score": 10000,
        "tool": "巡抚印*1"
    },
    {
        "id": 37,
        "level": 37,
        "name": "四品巡抚",
        "final_exp": 8176000,
        "master_score": 12500,
        "tool": "巡抚印*2"
    },
    {
        "id": 38,
        "level": 38,
        "name": "三品巡抚",
        "final_exp": 9893000,
        "master_score": 15000,
        "tool": "巡抚印*3"
    },
    {
        "id": 39,
        "level": 39,
        "name": "二品巡抚",
        "final_exp": 10882500,
        "master_score": 17500,
        "tool": "巡抚印*4"
    },
    {
        "id": 40,
        "level": 40,
        "name": "一品丞相",
        "final_exp": 12000000,
        "master_score": 20000,
        "tool": "丞相印*1"
    }
]