[
    {
        "id": 0,
        "name": "哎呀你这是啥网啊，太次了",
        "type": 2,
		"nSex":1
    },
    {
        "id": 1,
        "name": "哎 这两天啥手气啊，老背了",
        "type": 2,
		"nSex":1
    },
    {
        "id": 2,
        "name": "哎呦我去，又打错了",
        "type": 2,
		"nSex":1
    },
    {
        "id": 3,
        "name": "磨蹭啥啊，赶快出牌啊",
        "type": 2,
		"nSex":1
    },
    {
        "id": 4,
        "name": "打牌要老实啊，知道不",
        "type": 2,
		"nSex":1
    },
    {
        "id": 5,
        "name": "盯住盯住啊，别窜张",
        "type": 2,
		"nSex":1
    },
    {
        "id": 6,
        "name": "都别点啊，我自己搂",
        "type": 2,
		"nSex":1
    },
    {
        "id": 7,
        "name": "跟谁俩呢，又是你胡",
        "type": 2,
		"nSex":1
    },
	{
        "id": 8,
        "name": "你这是那个部队出来的，这炮让你点的",
        "type": 2,
		"nSex":1
    },
    {
        "id": 9,
        "name": "杀愣的，打牌要快啊",
        "type": 2,
        "nSex": 1
    },
    {
        "id": 10,
        "name": "先胖不算胖，后胖压倒炕",
        "type": 2,
        "nSex": 1
    },
    {
        "id": 11,
        "name": "这牌开门就是胜利啊",
        "type": 2,
        "nSex": 1
    },
    {
        "id": 12,
        "name": "继续不，再来4圈啊",
        "type": 2,
        "nSex": 1
    },
{
        "id": 111,
        "name": "哎呀，你这是啥网啊，太次了",
        "type": 2,
		"nSex":2
    },
    {
        "id": 112,
        "name": "哎，这两天啥手气啊，老背了",
        "type": 2,
		"nSex":2
    },
    {
        "id": 113,
        "name": "哎呦我去，又打错了",
        "type": 2,
		"nSex":2
    },
    {
        "id": 114,
        "name": "磨蹭啥啊，赶快出牌啊",
        "type": 2,
		"nSex":2
    },
    {
        "id": 115,
        "name": "打牌要老实啊，知道不",
        "type": 2,
		"nSex":2
    },
    {
        "id": 116,
        "name": "盯住盯住啊，别窜张",
        "type": 2,
		"nSex":2
    },
    {
        "id": 117,
        "name": "都别点啊，我自己搂",
        "type": 2,
		"nSex":2
    },
    {
        "id": 118,
        "name": "跟谁俩呢，又是你胡",
        "type": 2,
		"nSex":2
    },
	{
        "id": 119,
        "name": "你这是那个部队出来的，这炮让你点的",
        "type": 2,
		"nSex":2
    },
    {
        "id": 120,
        "name": "打杀愣的，打牌要快啊",
        "type": 2,
		"nSex":2
    },
    {
        "id": 121,
        "name": "先胖不算胖，后胖压倒炕",
        "type": 2,
		"nSex":2
    },
    {
        "id": 122,
        "name": "这牌开门就是胜利啊",
        "type": 2,
		"nSex":2
    },
    {
        "id": 123,
        "name": "继续不，再来4圈啊",
        "type": 2,
		"nSex":2
    }
,
    {
        "id": 50,
        "name": "majiang_ui/majiang_chat/btn_n_exp_01.png",
        "type": 1
    },
    {
        "id": 51,
        "name": "majiang_ui/majiang_chat/btn_n_exp_02.png",
        "type": 1
    },{
        "id": 52,
        "name": "majiang_ui/majiang_chat/btn_n_exp_03.png",
        "type": 1
    },{
        "id": 53,
        "name": "majiang_ui/majiang_chat/btn_n_exp_04.png",
        "type": 1
    },{
        "id": 54,
        "name": "majiang_ui/majiang_chat/btn_n_exp_05.png",
        "type": 1
    },{
        "id": 55,
        "name": "majiang_ui/majiang_chat/btn_n_exp_06.png",
        "type": 1
    },{
        "id": 56,
        "name": "majiang_ui/majiang_chat/btn_n_exp_07.png",
        "type": 1
    },{
        "id": 57,
        "name": "majiang_ui/majiang_chat/btn_n_exp_08.png",
        "type": 1
    },{
        "id": 58,
        "name": "majiang_ui/majiang_chat/btn_n_exp_09.png",
        "type": 1
    },{
        "id": 59,
        "name": "majiang_ui/majiang_chat/btn_n_exp_10.png",
        "type": 1
    },{
        "id": 60,
        "name": "majiang_ui/majiang_chat/btn_n_exp_11.png",
        "type": 1
    },{
        "id": 61,
        "name": "majiang_ui/majiang_chat/btn_n_exp_12.png",
        "type": 1
    },{
        "id": 62,
        "name": "majiang_ui/majiang_chat/btn_n_exp_13.png",
        "type": 1
    },{
        "id": 63,
        "name": "majiang_ui/majiang_chat/btn_n_exp_14.png",
        "type": 1
    },{
        "id": 64,
        "name": "majiang_ui/majiang_chat/btn_n_exp_15.png",
        "type": 1
    },{
        "id": 65,
        "name": "majiang_ui/majiang_chat/btn_n_exp_16.png",
        "type": 1
    },{
        "id": 66,
        "name": "majiang_ui/majiang_chat/btn_n_exp_17.png",
        "type": 1
    },{
        "id": 67,
        "name": "majiang_ui/majiang_chat/btn_n_exp_18.png",
        "type": 1
    }
]