{
    "ndk_module_path" :[
        "../../cocos2d-x",
        "../../cocos2d-x/cocos/",
        "../../cocos2d-x/external",
        "../../cocos2d-x/cocos/scripting"
    ],
    "copy_resources": [
        {
            "from": "../../../client/ciphercode/base/src",
            "to": "base/src"
        },
        {
            "from": "../../../client/ciphercode/base/res",
            "to": "base/res"
        },
        {
            "from": "../../../client/ciphercode/client",
            "to": "client"
        },
        {
            "from": "../../../client/ciphercode/command",
            "to": "command"
        },
        {
            "from": "../../../client/ciphercode/game",
            "to": "game"
        }
    ],
    "must_copy_resources": [
        {
            "from": "../../../client/base/config.json",
            "to": "base"
        }
    ]
}
