iOS icon:
	29*29
	40*40
	50*50
	57*57
	58*58
	72*72
	76*76
	80*80
	87*87
	100*100
	114*114
	120*120
	144*144
	152*152
	180*180
	1024*1024

Android icon:
	72*72
	32*32
	48*48

iOS启动界面：
	640*1134
	750*1334
	1242*2208
	320*480
	640*960

Android 启动界面：
	1334*750